<?xml version="1.0" encoding="UTF-8"?>
<svg width="11px" height="11px" viewBox="0 0 11 11" version="1.1" xmlns="http://www.w3.org/2000/svg" xmlns:xlink="http://www.w3.org/1999/xlink">
    <!-- Generator: Sketch 51.3 (57544) - http://www.bohemiancoding.com/sketch -->
    <title>burgerclose</title>
    <desc>Created with Sketch.</desc>
    <defs></defs>
    <g id="tālāk" stroke="none" stroke-width="1" fill="none" fill-rule="evenodd">
        <g id="ADK-dizains-mobile-burger-open" transform="translate(-331.000000, -34.000000)" fill="#C53027">
            <g id="ADK-header-mobile">
                <g id="Group-4">
                    <polygon id="burgerclose" points="336.303301 37.8890873 340.192388 34 341.606602 35.4142136 337.717514 39.3033009 341.606602 43.1923882 340.192388 44.6066017 336.303301 40.7175144 332.414214 44.6066017 331 43.1923882 334.889087 39.3033009 331 35.4142136 332.414214 34"></polygon>
                </g>
            </g>
        </g>
    </g>
</svg>